<?xml version="1.0" encoding="UTF-8" standalone="no"?>
<svg
   xmlns:dc="http://purl.org/dc/elements/1.1/"
   xmlns:cc="http://creativecommons.org/ns#"
   xmlns:rdf="http://www.w3.org/1999/02/22-rdf-syntax-ns#"
   xmlns:svg="http://www.w3.org/2000/svg"
   xmlns="http://www.w3.org/2000/svg"
   xmlns:sodipodi="http://sodipodi.sourceforge.net/DTD/sodipodi-0.dtd"
   xmlns:inkscape="http://www.inkscape.org/namespaces/inkscape"
   xml:space="preserve"
   enable-background="new 0 0 100 100"
   viewBox="0 0 100 100"
   height="100px"
   width="100px"
   y="0px"
   x="0px"
   id="Layer_1"
   version="1.1"
   sodipodi:docname="theme-dark.svg"
   inkscape:version="1.0 (4035a4f, 2020-05-01)"><sodipodi:namedview
   inkscape:document-rotation="0"
   pagecolor="#ffffff"
   bordercolor="#666666"
   borderopacity="1"
   objecttolerance="10"
   gridtolerance="10"
   guidetolerance="10"
   inkscape:pageopacity="0"
   inkscape:pageshadow="2"
   inkscape:window-width="1916"
   inkscape:window-height="1157"
   id="namedview624"
   showgrid="false"
   inkscape:zoom="4.270925"
   inkscape:cx="50.216839"
   inkscape:cy="49.347361"
   inkscape:window-x="0"
   inkscape:window-y="41"
   inkscape:window-maximized="1"
   inkscape:current-layer="Layer_1" /><metadata
   id="metadata541"><rdf:RDF><cc:Work
       rdf:about=""><dc:format>image/svg+xml</dc:format><dc:type
         rdf:resource="http://purl.org/dc/dcmitype/StillImage" /><dc:title></dc:title></cc:Work></rdf:RDF></metadata><defs
   id="defs539" />
<path
   d="M 51.302734 15.894531 C 32.174342 15.894531 16.667969 31.400905 16.667969 50.529297 C 16.667969 69.656994 32.174342 85.166016 51.302734 85.166016 C 70.431816 85.166016 85.9375 69.656994 85.9375 50.529297 C 85.9375 31.400905 70.431816 15.894531 51.302734 15.894531 z M 52.066406 22.039062 L 52.066406 79.021484 C 36.351175 78.996895 23.617188 66.251096 23.617188 50.53125 C 23.617188 34.810835 36.351174 22.063643 52.066406 22.039062 z M 44.582031 24.714844 L 42.615234 26.980469 L 49.238281 32.722656 L 51.203125 30.455078 L 44.582031 24.714844 z M 39.265625 27.548828 L 37.234375 29.755859 L 49.171875 40.738281 L 51.203125 38.53125 L 39.265625 27.548828 z M 33.695312 31.685547 L 31.707031 33.931641 L 49.216797 49.416016 L 51.203125 47.167969 L 33.695312 31.685547 z M 29.554688 37.351562 L 27.650391 39.669922 L 49.298828 57.451172 L 51.203125 55.132812 L 29.554688 37.351562 z M 27.623047 43.660156 L 25.685547 45.949219 L 49.265625 65.902344 L 51.203125 63.611328 L 27.623047 43.660156 z M 27.804688 51.621094 L 25.888672 53.929688 L 49.287109 73.359375 L 51.203125 71.050781 L 27.804688 51.621094 z M 32.134766 63.033203 L 30.160156 65.292969 L 40.568359 74.138672 L 42.541016 71.880859 L 32.134766 63.033203 z "
   style="stroke-width:0.692706"
   id="path534" />
</svg>
